{
  "template-type": "cpt",
  "slug": "string",
  "plurals": {
    "single": "string",
    "find": "string",
    "multiple": "string",
    "no": "string"
  },
  "settings": {
    "labels": {
      "name": "string",
      "singular_name": "string",
      "add_new": "Добавить новый ",
      "add_new_item": "Добавить новый ",
      "edit_item": "Редактировать ",
      "new_item": "Новый ",
      "view_item": "Посмотреть ",
      "search_items": "Найти ",
      "not_found": "Нет ни одного ",
      "not_found_in_trash": "В корзине нет ",
      "parent_item_colon": "",
      "menu_name": "string"
    },
    "public": "bool",
    "publicly_queryable": "bool",
    "show_ui": "bool",
    "show_in_menu": "bool",
    "query_var": "bool",
    "rewrite": "bool",
    "capability_type": "post",
    "has_archive": "bool",
    "hierarchical": "bool",
    "menu_position": "bool",
    "menu_icon": "string",
    "supports": "array"
  }
}
